,Date,Unix,Tiker,De Ratio,Price,stock_p_change,SP_500,sp500_p_change,Difference,Status
0,2011-01-08 00:59:35,1294428575.0,oxy,7.92,96.19,0.0,1276.560059,0.0,0.0,underperfrom
1,2005-02-04 07:40:44,1107481244.0,oxy,0.392,60.56,-37.04127248154693,1203.030029,-5.760013364165571,-31.28125911738136,underperfrom
2,2008-12-30 17:44:54,1230639294.0,oxy,0.066,57.74,-39.972970163218626,890.6400150000001,-30.231248524437802,-9.741721638780824,underperfrom
3,2004-06-28 01:57:39,1088366259.0,oxy,0.477,48.56,-49.51658176525626,1133.349976,-11.218436766084029,-38.29814499917224,underperfrom
4,2007-04-04 17:15:28,1175687128.0,oxy,0.145,49.76,-48.26905083688533,1439.369995,12.753801503670587,-61.022852340555914,underperfrom
5,2008-06-02 08:27:27,1212375447.0,oxy,0.075,91.93,-4.428734795716801,1385.670044,8.547187751234512,-12.975922546951313,underperfrom
6,2006-09-02 12:05:27,1157178927.0,oxy,0.161,51.48,-46.480923172886996,1305.369995,2.256841407255725,-48.73776458014272,underperfrom
7,2011-08-14 18:02:45,1313325165.0,oxy,12.09,85.12,-11.508472814221845,1172.640015,-8.140631008102062,-3.367841806119783,underperfrom
8,2008-12-12 04:29:22,1229036362.0,oxy,0.066,57.83,-39.87940534359081,879.7299800000001,-31.08589182328474,-8.793513520306071,underperfrom
9,2011-08-18 01:18:27,1313610507.0,oxy,12.09,87.61,-8.919846137852167,1140.650024,-10.646583687293626,1.7267375494414594,outperfrom
10,2008-06-17 18:35:22,1213707922.0,oxy,0.075,91.29,-5.094084624181299,1350.930054,5.8258124618326335,-10.919897086013933,underperfrom
11,2011-01-06 19:09:35,1294321175.0,oxy,7.92,96.5,0.3222788231624933,1273.849976,-0.2122957694699377,0.534574592632431,outperfrom
12,2004-12-15 01:44:29,1103053469.0,oxy,0.392,56.51,-41.251689364798835,1205.719971,-5.54929535046654,-35.7023940143323,underperfrom
13,2004-11-29 00:21:45,1101666105.0,oxy,0.392,60.31,-37.30117475829088,1178.569946,-7.676106761225235,-29.625067997065642,underperfrom
14,2004-08-03 23:10:59,1091553059.0,hig,0.381,64.34,0.0,1099.689941,0.0,0.0,underperfrom
15,2009-01-24 03:51:29,1232749289.0,hig,0.539,14.1,-78.08517252098228,840.23999,-23.593009386270275,-54.49216313471201,underperfrom
16,2005-02-04 07:43:06,1107481386.0,hig,0.361,69.31,7.724588125582839,1203.030029,9.397202261032586,-1.6726141354497468,underperfrom
17,2006-12-09 19:51:28,1165674088.0,hig,0.23,86.94,35.12589368977307,1412.900024,28.481672089787708,6.644221599985364,outperfrom
18,2006-08-22 00:52:03,1156188123.0,hig,0.31,83.7,30.090146098849857,1298.819946,18.107831814749677,11.98231428410018,outperfrom
19,2007-07-12 01:09:54,1184182794.0,hig,0.26,96.9,50.60615480261112,1547.699951,40.73966609102592,9.866488711585205,outperfrom
20,2011-10-31 17:39:26,1320062966.0,hig,32.42,19.72,-69.35032639104757,1253.300049,13.968492597132872,-83.31881898818045,underperfrom
21,2008-12-18 00:42:43,1229541163.0,hig,0.539,17.52,-72.76966117500778,885.2800289999999,-19.49730592288833,-53.27235525211945,underperfrom
22,2008-12-08 17:33:05,1228737785.0,hig,0.539,16.18,-74.85234690705627,909.7000119999999,-17.2766815369097,-57.575665370146574,underperfrom
23,2011-04-30 18:17:31,1304167651.0,hig,34.53,28.97,-54.97357786757849,1355.660034,23.276569463501158,-78.25014733107965,underperfrom
24,2011-09-01 02:38:09,1314824889.0,hig,32.42,19.14,-70.25178737954616,1204.420044,9.523602889807634,-79.77539026935379,underperfrom
25,2006-08-22 09:53:58,1156220638.0,hig,0.31,83.7,30.090146098849857,1298.819946,18.107831814749677,11.98231428410018,outperfrom
26,2005-03-06 22:14:18,1110125658.0,hig,0.346,72.93,13.350948088281012,1210.469971,10.073751324783636,3.2771967634973755,outperfrom
27,2007-07-14 00:06:19,1184351779.0,hig,0.26,98.4,52.93751942803855,1518.76001,38.10802057704735,14.8294988509912,outperfrom
28,2008-12-04 06:07:36,1228351056.0,hig,0.539,6.92,-89.24463786136153,845.2199710000001,-23.140156194263124,-66.1044816670984,underperfrom
29,2004-12-10 06:11:52,1102637512.0,hig,0.361,65.96,2.517873795461595,1188.0,8.030450739568955,-5.51257694410736,underperfrom
30,2008-11-02 23:35:07,1225649107.0,hig,0.421,10.32,-83.96021137705937,954.090027,-13.240087825810177,-70.72012355124919,underperfrom
31,2011-11-04 18:46:19,1320412579.0,hig,32.42,17.92,-72.14796394156046,1253.22998,13.962120892037873,-86.11008483359834,underperfrom
32,2006-06-26 13:57:36,1151310456.0,hig,0.309,82.6,28.380478706869738,1250.560059,13.719332365885467,14.66114634098427,outperfrom
33,2004-11-29 14:24:54,1101716694.0,pnw,1.106,45.41,0.0,1178.569946,0.0,0.0,underperfrom
34,2004-07-17 18:53:56,1090068836.0,pnw,1.101,40.71,-10.350143140277464,1111.469971,-5.693338373995842,-4.656804766281621,underperfrom
35,2007-04-07 06:28:18,1175907498.0,pnw,0.949,49.5,9.00682669015636,1439.369995,22.128516842393665,-13.121690152237305,underperfrom
36,2004-09-10 13:01:57,1094799717.0,pnw,1.15,42.0,-7.5093591719885415,1123.920044,-4.636967214841919,-2.8723919571466228,underperfrom
37,2007-02-20 18:34:49,1171976689.0,pnw,0.996,48.36,6.496366439110335,1459.680054,23.851796743508665,-17.35543030439833,underperfrom
38,2008-10-16 20:13:54,1224168234.0,l,0.441,32.51,0.0,946.429993,0.0,0.0,underperfrom
39,2004-05-16 19:15:07,1084713307.0,l,0.461,10.71,-67.05629037219316,1096.439941,15.850083905783418,-82.90637427797658,underperfrom
40,2009-01-03 19:08:32,1230989912.0,l,0.488,29.77,-8.428175945862808,903.25,-4.562407501808744,-3.865768444054064,underperfrom
41,2005-02-07 03:21:05,1107724865.0,l,0.403,10.48,-67.76376499538603,1201.719971,26.97399489536254,-94.73775989074856,underperfrom
42,2011-08-16 23:55:30,1313519130.0,l,39.28,36.84,13.318978775761323,1192.76001,26.027283456981483,-12.70830468122016,underperfrom
43,2005-05-27 12:43:28,1117176208.0,l,0.349,10.47,-67.79452476161183,1198.780029,26.66335998081583,-94.45788474242765,underperfrom
44,2003-10-26 15:42:55,1067161375.0,l,0.265,9.83,-69.76314980006151,1033.77002,9.228366349966253,-78.99151615002776,underperfrom
45,2005-01-19 17:19:18,1106133558.0,l,0.403,10.5,-67.70224546293448,1184.630005,25.16826535103268,-92.87051081396717,underperfrom
46,2004-10-10 12:34:26,1097390066.0,l,0.386,8.75,-73.0852045524454,1130.650024,19.464728755695727,-92.54993330814114,underperfrom
47,2011-11-04 10:12:59,1320381779.0,etfc,187.95,10.65,0.0,1253.22998,0.0,0.0,underperfrom
48,2008-12-20 19:23:45,1229781225.0,etfc,5.723,1.19,-88.82629107981221,904.419983,-27.83288004329421,-60.993411036518,underperfrom
49,2011-12-30 02:41:39,1325193099.0,etfc,195.42,7.97,-25.164319248826295,1257.599976,0.3486986482720355,-25.51301789709833,underperfrom
50,2008-03-20 00:12:39,1205952159.0,etfc,6.884,3.45,-67.6056338028169,1329.51001,6.08667453040023,-73.69230833321713,underperfrom
51,2008-12-18 00:42:43,1229541163.0,etfc,5.723,1.23,-88.45070422535211,885.2800289999999,-29.36012997390951,-59.090574251442604,underperfrom
52,2007-05-28 00:31:06,1180292466.0,etfc,4.731,22.6,112.20657276995306,1515.72998,20.94587619105633,91.26069657889673,outperfrom
53,2008-01-25 16:45:14,1201259714.0,etfc,5.323,3.73,-64.97652582159624,1330.609985,6.1744457310221685,-71.15097155261842,underperfrom
54,2008-11-01 11:25:55,1225518955.0,etfc,5.723,1.82,-82.91079812206573,930.090027,-25.78456932541624,-57.126228796649485,underperfrom
55,2007-03-07 23:27:28,1173290248.0,etfc,4.052,22.46,110.89201877934272,1391.969971,11.070593044701972,99.82142573464074,outperfrom
56,2007-03-09 02:37:38,1173388058.0,etfc,4.052,22.45,110.79812206572768,1402.839966,11.937951404577788,98.8601706611499,outperfrom
57,2011-09-27 02:39:55,1317071395.0,etfc,199.65,9.73,-8.638497652582158,1175.380005,-6.2119464298165035,-2.4265512227656547,underperfrom
58,2007-02-27 11:27:01,1172555821.0,etfc,4.04,24.08,126.1032863849765,1399.040039,11.634740736093779,114.46854564888272,outperfrom
59,2007-02-10 04:22:28,1171061548.0,etfc,4.04,24.1,126.29107981220658,1450.02002,15.7026278608496,110.58845195135697,outperfrom
60,2007-10-11 21:06:12,1192116972.0,etfc,5.105,13.75,29.107981220657276,1554.410034,24.03230522780822,5.075675992849057,outperfrom
61,2011-12-28 23:03:53,1325093633.0,dlph,103.58,21.19,0.0,1249.640015,0.0,0.0,underperfrom
62,2012-01-28 06:09:47,1327711187.0,dlph,103.58,27.16,28.173666823973566,1326.060059,6.1153646716410535,22.058302152332512,outperfrom
63,2012-01-28 15:18:06,1327744086.0,dlph,103.58,27.16,28.173666823973566,1326.060059,6.1153646716410535,22.058302152332512,outperfrom
64,2005-08-31 02:54:33,1125435273.0,pets,0.0,10.45,0.0,1220.329956,0.0,0.0,underperfrom
65,2004-09-20 17:36:31,1095680191.0,pets,0.003,5.0,-52.15311004784689,1122.199951,-8.04126822565683,-44.11184182219006,underperfrom
66,2005-02-27 08:23:35,1109471015.0,pets,0.0,8.11,-22.392344497607656,1200.199951,-1.6495542784168107,-20.742790219190844,underperfrom
67,2005-05-27 13:14:24,1117178064.0,pets,0.0,7.04,-32.63157894736842,1198.780029,-1.7659098585628772,-30.86566908880554,underperfrom
68,2005-04-01 17:07:45,1112353665.0,pets,0.0,7.36,-29.569377990430613,1172.920044,-3.885007638049006,-25.684370352381606,underperfrom
69,2005-04-05 07:57:10,1112666230.0,pets,0.0,7.379,-29.38755980861244,1181.390015,-3.1909354358256934,-26.196624372786747,underperfrom
70,2011-12-30 03:37:03,1325196423.0,wfm,0.6,69.94,0.0,1257.599976,0.0,0.0,underperfrom
71,2011-08-08 06:42:24,1312765944.0,wfm,0.63,58.61,-16.199599656848726,1119.459961,-10.98441616064407,-5.215183496204656,underperfrom
72,2011-12-21 05:46:01,1324426561.0,wfm,0.6,68.7,-1.772948241349721,1243.719971,-1.1036899860755072,-0.6692582552742139,underperfrom
73,2011-12-28 21:15:44,1325087144.0,wfm,0.6,69.49,-0.6434086359736958,1249.640015,-0.632948564878155,-0.010460071095540813,underperfrom
74,2011-10-09 00:06:52,1318099012.0,wfm,0.63,66.8,-4.489562482127539,1164.969971,-7.365617586493974,2.8760551043664346,outperfrom
75,2008-12-05 00:15:55,1228416355.0,adbe,0.08,20.44,0.0,876.070007,0.0,0.0,underperfrom
76,2004-01-25 05:32:05,1074987125.0,adbe,0.0,38.04,86.10567514677102,1143.939941,30.576316031784895,55.52935911498612,outperfrom
77,2011-04-24 04:02:44,1303597964.0,adbe,28.03,33.48,63.79647749510761,1337.380005,52.65675052381972,11.139726971287892,outperfrom
78,2005-04-05 04:12:22,1112652742.0,adbe,0.0,66.58,225.73385518590996,1181.390015,34.85109700827823,190.88275817763173,outperfrom
79,2008-12-17 11:42:55,1229494375.0,adbe,0.08,22.32,9.197651663405082,904.419983,3.2360400166056555,5.961611646799427,outperfrom
80,2011-08-05 04:11:46,1312497706.0,adbe,28.17,26.15,27.935420743639906,1199.380005,36.90458472686874,-8.969163983228835,underperfrom
81,2004-11-12 17:19:37,1100258377.0,adbe,0.0,58.1,184.24657534246575,1184.170044,35.16842655703426,149.0781487854315,outperfrom
82,2011-09-25 13:42:54,1316938374.0,adbe,28.17,24.88,21.722113502935407,1129.560059,28.934908166534214,-7.212794663598807,underperfrom
83,2005-08-31 10:51:30,1125463890.0,adbe,0.0,27.12,32.68101761252446,1220.329956,39.29594053549193,-6.614922922967473,underperfrom
84,2004-08-21 23:10:00,1093108200.0,adbe,0.0,46.09,125.48923679060667,1095.170044,25.00942107929052,100.47981571131615,outperfrom
85,2008-12-20 21:49:14,1229789954.0,adbe,0.079,22.13,8.268101761252435,904.419983,3.2360400166056555,5.0320617446467795,outperfrom
86,2005-02-07 16:20:07,1107771607.0,adbe,0.0,63.67,211.49706457925635,1201.719971,37.17168278767475,174.3253817915816,outperfrom
87,2011-10-18 13:47:26,1318925846.0,adbe,27.25,26.24,28.375733855185892,1225.380005,39.87238407991748,-11.496650224731589,underperfrom
88,2008-12-04 14:30:57,1228381257.0,adbe,0.08,22.54,10.273972602739715,845.2199710000001,-3.5214121877819213,13.795384790521636,outperfrom
89,2007-05-29 12:14:41,1180421081.0,mmm,0.458,87.35,0.0,1518.109985,0.0,0.0,underperfrom
90,2011-11-06 19:00:10,1320586210.0,mmm,35.37,79.3,-9.2157985117344,1261.150024,-16.926307285963873,7.7105087742294725,outperfrom
91,2006-12-06 03:06:51,1165354611.0,mmm,0.346,80.56,-7.773325701202053,1412.900024,-6.930325341348705,-0.843000359853348,underperfrom
92,2004-09-19 22:39:39,1095611979.0,mmm,0.315,82.32,-5.758443045220379,1123.5,-25.993504350740437,20.23506130552006,outperfrom
93,2011-12-26 06:27:06,1324861026.0,mmm,35.37,82.2,-5.89582140812821,1265.329956,-16.650969396001962,10.755147987873752,outperfrom
94,2008-10-28 17:16:35,1225194395.0,mmm,0.577,60.42,-30.82999427590154,940.51001,-38.04730755393853,7.21731327803699,outperfrom
95,2005-03-07 02:24:13,1110140653.0,mmm,0.272,86.46,-1.018889524899829,1225.310059,-19.28713524666002,18.26824572176019,outperfrom
96,2006-12-08 16:29:04,1165575544.0,mmm,0.346,78.22,-10.452203777904975,1409.839966,-7.13189558528594,-3.320308192619035,underperfrom
97,2005-02-07 03:06:21,1107723981.0,mmm,0.272,84.08,-3.7435603892386906,1201.719971,-20.841046902145237,17.097486512906546,outperfrom
98,2007-06-05 15:19:10,1181036950.0,mmm,0.458,88.19,0.961648540354898,1530.949951,0.8457862820788972,0.11586225827600083,outperfrom
99,2003-12-15 23:43:22,1071510202.0,mmm,0.399,82.0,-6.1247853463079505,1068.040039,-29.646728527380056,23.521943181072103,outperfrom
100,2007-01-07 09:29:13,1168142353.0,mmm,0.346,77.42,-11.36805953062392,1418.339966,-6.571988853627101,-4.79607067699682,underperfrom
101,2007-01-27 03:41:13,1169849473.0,mmm,0.346,78.69,-9.914138523182595,1440.130005,-5.13664891019079,-4.777489612991805,underperfrom
102,2007-03-12 13:10:43,1173685243.0,mmm,0.356,74.73,-14.447624499141376,1406.599976,-7.345318198404451,-7.102306300736926,underperfrom
103,2007-05-05 07:31:13,1178330473.0,mmm,0.363,84.21,-3.5947338294218674,1495.920044,-1.4616820401191215,-2.133051789302746,underperfrom
104,2006-12-31 20:04:33,1167575673.0,mmm,0.346,77.93,-10.784201488265586,1424.72998,-6.151069811980716,-4.6331316762848695,underperfrom
105,2011-09-27 04:31:08,1317078068.0,mmm,31.56,75.19,-13.921007441327987,1175.380005,-22.576096816858765,8.655089375530778,outperfrom
106,2007-01-27 00:54:57,1169839497.0,mmm,0.346,78.69,-9.914138523182595,1440.130005,-5.13664891019079,-4.777489612991805,underperfrom
107,2004-12-10 14:23:38,1102667018.0,mmm,0.306,78.97,-9.593589009730962,1188.0,-21.744800328152774,12.151211318421812,outperfrom
108,2006-12-13 05:29:35,1165967975.0,mmm,0.346,79.01,-9.547796222095007,1413.209961,-6.909909363385158,-2.637886858709849,underperfrom
109,2006-06-16 17:32:12,1150459332.0,mmm,0.24,80.65,-7.670291929021166,1251.540039,-17.559330261568633,9.889038332547466,outperfrom
110,2007-07-06 07:01:29,1183685489.0,mmm,0.458,87.76,0.46937607326847264,1530.439941,0.812191219465567,-0.3428151461970944,underperfrom
111,2007-12-20 16:37:21,1198148841.0,mmm,0.477,84.26,-3.5374928448769194,1460.119995,-3.81988067880339,0.2823878339264705,outperfrom
112,2007-01-16 20:32:11,1168959731.0,mmm,0.346,79.24,-9.284487693188323,1431.900024,-5.6787691176407105,-3.6057185755476127,underperfrom
113,2007-06-04 17:04:31,1180956871.0,mmm,0.458,88.11,0.8700629650830053,1539.180054,1.3879145258371959,-0.5178515607541906,underperfrom
114,2011-11-06 20:42:20,1320592340.0,mmm,35.37,79.3,-9.2157985117344,1261.150024,-16.926307285963873,7.7105087742294725,outperfrom
115,2006-08-29 19:24:21,1156859661.0,mmm,0.235,71.63,-17.996565540927303,1304.280029,-14.085274328789824,-3.9112912121374794,underperfrom
116,2007-01-11 23:29:49,1168538389.0,mmm,0.346,78.65,-9.959931310818533,1423.819946,-6.211015007585236,-3.7489163032332966,underperfrom
117,2006-12-18 15:58:47,1166437727.0,mmm,0.346,78.51,-10.12020606754435,1422.47998,-6.299280417419821,-3.8209256501245292,underperfrom
118,2004-12-04 14:49:12,1102150152.0,mmm,0.306,81.08,-7.178019461934741,1191.369995,-21.522814106251996,14.344794644317254,outperfrom
119,2006-08-22 00:52:28,1156188148.0,mmm,0.235,71.12,-18.580423583285622,1298.819946,-14.444937531979935,-4.135486051305687,underperfrom
120,2006-07-18 01:42:46,1153167166.0,mmm,0.24,70.66,-19.107040641099026,1236.859985,-18.526325679888075,-0.5807149612109512,underperfrom
121,2004-06-03 01:36:52,1086205012.0,mmm,0.349,85.61,-1.9919862621637034,1116.640015,-26.445381030808523,24.45339476864482,outperfrom
122,2007-01-21 16:11:44,1169376104.0,mmm,0.346,79.25,-9.27303949627933,1426.369995,-6.043039760389958,-3.229999735889371,underperfrom
123,2008-01-23 16:18:22,1201085302.0,mmm,0.477,73.81,-15.500858614768164,1338.599976,-11.824572051675167,-3.6762865630929973,underperfrom
124,2005-11-28 21:06:32,1133190392.0,hum,0.312,45.44,0.0,1257.459961,0.0,0.0,underperfrom
125,2011-08-14 05:55:55,1313281555.0,hum,25.27,74.21,63.31426056338027,1172.640015,-6.745339703106465,70.05960026648674,outperfrom
126,2007-04-10 15:13:04,1176198184.0,hum,0.512,63.22,39.12852112676057,1448.390015,15.183787947264902,23.944733179495664,outperfrom
127,2012-01-04 01:00:29,1325619029.0,hum,25.09,88.33,94.38820422535213,1277.300049,1.5777908335325455,92.81041339181958,outperfrom
128,2007-01-28 06:44:14,1169946854.0,hum,0.433,53.46,17.64964788732395,1423.900024,13.236211741297744,4.413436146026207,outperfrom
129,2004-11-24 22:46:25,1101314785.0,hum,0.369,23.95,-47.2931338028169,1181.76001,-6.020068499023966,-41.27306530379293,underperfrom
130,2011-12-29 06:58:17,1325122097.0,hum,25.09,87.63,92.84771126760563,1263.02002,0.44216588777731347,92.40554537982833,outperfrom
131,2008-05-02 18:25:54,1209732954.0,hum,0.486,48.0,5.633802816901413,1413.900024,12.4409577920549,-6.807154975153487,underperfrom
132,2004-09-16 18:35:08,1095338108.0,hum,0.416,19.51,-57.06426056338027,1123.5,-10.653218802566709,-46.41104176081356,underperfrom
133,2009-02-07 02:21:43,1233953503.0,cov,0.369,39.82,0.0,832.22998,0.0,0.0,underperfrom
134,2011-05-22 22:44:23,1306084463.0,cov,43.3,56.91,42.918131592164734,1343.599976,61.445755174549234,-18.5276235823845,underperfrom
135,2011-12-23 21:24:57,1324655697.0,cov,42.86,45.5,14.264188849824208,1265.329956,52.040900521271794,-37.776711671447586,underperfrom
136,2009-01-06 20:19:04,1231253344.0,sai,0.57,19.79,0.0,934.7000119999999,0.0,0.0,underperfrom
137,2007-01-16 11:23:22,1168926802.0,sai,0.844,17.75,-10.308236483072255,1431.900024,53.19353863451113,-63.501775117583385,underperfrom
138,2007-12-17 07:34:30,1197857070.0,sai,0.691,19.91,0.606366851945432,1445.900024,54.69134539820678,-54.08497854626135,underperfrom
139,2011-12-28 19:25:55,1325080555.0,sai,79.62,12.15,-38.60535624052551,1249.640015,33.69423333226619,-72.29958957279169,underperfrom
140,2011-10-04 23:29:22,1317751162.0,sai,76.43,11.61,-41.33400707427994,1123.949951,20.247131333084884,-61.58113840736482,underperfrom
141,2007-02-25 00:16:17,1172342777.0,sai,0.844,18.26,-7.731177362304183,1456.380005,55.812558714292614,-63.543736076596794,underperfrom
142,2011-06-16 08:23:15,1308192795.0,cfn,27.89,26.93,0.0,1267.640015,0.0,0.0,underperfrom
143,2011-08-18 14:19:33,1313657373.0,cfn,27.25,24.58,-8.72632751578166,1140.650024,-10.017827577019169,1.2915000612375085,outperfrom
144,2011-04-14 21:46:44,1302797804.0,cfn,28.44,29.18,8.354994430003714,1314.52002,3.6982111991786555,4.6567832308250585,outperfrom
145,2010-12-01 07:25:04,1291168504.0,cfn,28.98,22.87,-15.076123282584476,1206.069946,-4.857062594383302,-10.219060688201175,underperfrom
146,2011-12-13 17:30:53,1323777653.0,cfn,27.34,24.39,-9.431860378759744,1225.72998,-3.3061464220187053,-6.125713956741039,underperfrom
147,2008-12-18 05:29:07,1229558347.0,etn,0.625,44.49,0.0,885.2800289999999,0.0,0.0,underperfrom
148,2011-10-30 07:05:59,1319938559.0,etn,48.74,46.97,5.5742863564845955,1284.589966,45.105494749616696,-39.531208393132104,underperfrom
149,2011-11-15 09:22:41,1321329161.0,etn,48.74,46.1,3.6187907394920193,1257.810059,42.08047372544988,-38.46168298595786,underperfrom
150,2007-04-09 12:40:35,1176102635.0,etn,0.63,85.44,92.04315576534052,1444.609985,63.18113339028009,28.862022375060427,outperfrom
151,2008-02-04 04:08:37,1202078317.0,etn,0.661,86.02,93.34681951000223,1380.819946,55.97549936371604,37.371320146286195,outperfrom
152,2011-03-11 06:29:14,1299805154.0,etn,46.71,51.24,15.171948752528658,1304.280029,47.329656862732655,-32.157708110204,underperfrom
153,2008-01-24 09:15:20,1201146320.0,etn,0.654,81.99,84.28860418071474,1352.069946,52.72793937611804,31.560664804596705,outperfrom
154,2005-09-08 06:37:24,1126139844.0,etn,0.634,65.49,47.20161834120025,1231.670044,39.12773401104252,8.073884330157732,outperfrom
155,2004-06-20 22:05:38,1087747538.0,etn,0.645,61.75,38.79523488424365,1132.050049,27.87479802054815,10.9204368636955,outperfrom
156,2008-02-02 08:39:18,1201921758.0,etn,0.661,86.02,93.34681951000223,1355.810059,53.150417335349154,40.19640217465308,outperfrom
157,2004-03-31 13:01:30,1080716490.0,etn,0.627,56.4,26.770060687795,1126.209961,27.215109807927245,-0.4450491201322464,underperfrom
158,2005-04-12 11:30:14,1113283814.0,etn,0.492,63.23,42.12182512924251,1187.76001,34.16771768156538,7.954107447677131,outperfrom
159,2011-09-02 15:22:29,1314957149.0,stx,142.59,10.86,0.0,1173.969971,0.0,0.0,underperfrom
160,2007-05-21 21:00:11,1179761411.0,stx,0.467,20.86,92.08103130755066,1525.099976,29.909624068229252,62.17140723932141,outperfrom
161,2008-12-20 23:59:26,1229797766.0,stx,0.437,4.55,-58.103130755064456,904.419983,-22.960552199678027,-35.14257855538643,underperfrom
162,2009-01-22 23:27:51,1232647071.0,stx,0.437,3.23,-70.25782688766114,827.5,-29.51267745842538,-40.74514942923576,underperfrom
163,2006-06-27 20:29:53,1151420393.0,stx,0.116,21.08,94.10681399631675,1239.199951,5.556358476906908,88.55045551940984,outperfrom
164,2004-09-18 21:29:35,1095521375.0,stx,0.401,13.79,26.979742173112335,1120.369995,-4.565702473151247,31.545444646263583,outperfrom
165,2011-11-19 16:59:52,1321702192.0,stx,143.67,16.01,47.421731123388604,1236.910034,5.361300932287646,42.060430191100956,outperfrom
166,2007-06-22 20:35:55,1182524755.0,stx,0.467,22.19,104.32780847145492,1502.560059,27.989650171384145,76.33815830007077,outperfrom
167,2005-04-01 10:35:23,1112330123.0,stx,0.364,19.55,80.01841620626152,1172.920044,-0.08943388893547986,80.107850095197,outperfrom
168,2011-11-02 23:39:05,1320257345.0,stx,143.67,16.84,55.06445672191529,1237.900024,5.4456293243637015,49.61882739755159,outperfrom
169,2007-04-21 02:41:10,1177103470.0,stx,0.472,21.58,98.71086556169428,1472.5,25.429102649508913,73.28176291218537,outperfrom
170,2005-02-23 08:33:25,1109126005.0,stx,0.364,17.17,58.103130755064484,1190.800049,1.433603790194388,56.669526964870094,outperfrom
171,2011-11-16 00:14:53,1321382693.0,eqr,143.47,58.75,0.0,1236.910034,0.0,0.0,underperfrom
172,2005-05-27 03:10:47,1117141847.0,eqr,1.232,35.81,-39.04680851063829,1198.780029,-3.082682163770044,-35.96412634686825,underperfrom
173,2004-11-30 18:48:41,1101818921.0,eqr,1.266,33.75,-42.5531914893617,1173.819946,-5.100620600188285,-37.452570889173415,underperfrom
174,2004-08-03 22:53:18,1091551998.0,eqr,1.254,29.82,-49.242553191489364,1099.689941,-11.093781215134028,-38.148771976355334,underperfrom
175,2005-02-06 18:45:25,1107693925.0,eqr,1.273,32.21,-45.17446808510638,1189.890015,-3.8014097798158897,-41.37305830529049,underperfrom
176,2007-02-21 20:18:50,1172069330.0,eqr,1.369,53.12,-9.58297872340426,1457.630005,17.844464426100693,-27.427443149504953,underperfrom
177,2005-01-18 06:51:01,1106009461.0,eqr,1.266,33.84,-42.39999999999999,1195.97998,-3.309056671457152,-39.09094332854284,underperfrom
178,2005-04-29 21:00:32,1114786832.0,eqr,1.232,34.35,-41.531914893617014,1156.849976,-6.472585378024351,-35.059329515592665,underperfrom
179,2005-08-17 04:04:07,1124229847.0,eqr,1.276,38.3,-34.80851063829788,1220.23999,-1.347716773393073,-33.46079386490481,underperfrom
